{
  "type": "service_account",
  "project_id": "turtle-cloud",
  "private_key_id": "4ce1ba63a2daa11289c7b8398974f84362130408",
  "private_key": "-----BEGIN PRIVATE KEY-----\nMIIEvQIBADANBgkqhkiG9w0BAQEFAASCBKcwggSjAgEAAoIBAQDUaHXfspm1mm3M\nCNNUefLwfW5pa3w+46UsCCHyTy5ylpC2deABA3WDZgngl2jeC+1OMaIp+CBV/g8v\noUe4a/T1ueFtp4D931ImggevTMv1sI8P6uM3WZJ2dZUcWOsc7xzuhyD3Edy1neJw\nTzeXEeGoOoaMNmL09vAxzxJBWpTqYMv+X8DrGA7+0VzXttdV3sdJSITkwNjHTUjv\n4taTcsAFVOQo9Ws2q4xG9yQa7ZQhAJSqVEM3FBiHX5RoHJvgDSWbbF309EyonCrE\n2YpEorneZTttGJ2/B4xTb3pepn0leGXckZ3fKlbOljkgj/aCfws3dzMOz+vsBcC/\n1mqrnJ/LAgMBAAECggEACJdGV+CGtwGipI3204PbKj7ofaW18L/kU6jrNpGynzqC\naol59eXd6uKa+P/RY1Ri1LbNMvAGNB7XyRAM2+NXP65fn7/BR9iwdJOYcU6khoYN\nmJHiKWrwsY8v6Lrv8iD5r+wR4+xPsPN3JR5kcTJtSLs/6zaH6hXSwTD5hrXTMBIx\n8c7XlGM02Ap+al39GKV07awzVPFWOwh/UVSNcXbNHKw7MEYyYQRbZ87Xiv0S6yqD\nld9NofsR7BbI0q+wFWP5Eg8UHR9H7dWJK+IUVChBeiTvR16+JZmeEFGnit/dJt5n\nA6W//w1J4Gz0y6WvaFl97/HQNRCmvCaP/Gqq8FcLAQKBgQD4n0KNYFQvifAAiClw\nDE4Lx/Ls9nhZ3yQ+UjTgw+kwLMdcIozitJvb9FfF1WsFltYc0rXF2ne5tm2ylMYT\nFC4+ySSMB1WtCTTjYQ0xPkFMfIrKi8ji89U2JkV8ryhNfB3WQmLca9ycCl1NCrZm\nEPEydNmqOMYG5tEc6nsLjs+o8wKBgQDathag8cWOiACsMgY+eDEo6tGiH0fuhFsJ\nJtW9mY7ZrvVV4jfbxWcVpp9uUfD9AOJ53YVtRRs4he5RM1pjOCm9CBfV5ph4PUQX\nWXCkJBITAnUWlMEIJym9x7fpaskhGpaEEoLg7BjX1RNU2RZOs6gGNP1Toe58QC/c\nuINacZljyQKBgQDNMlSxbpHM8qG9LqRUsDMyEgLzhLDsK/kz3pF5+PfbJPodlv6E\nleAVd+OBipVb9ZQeEeKou5kZE/IR9CxOztckRsr9L4iM2g5mpFFJFUK7qAa9CQXy\nGqEcohWzxLUUzp2pmv0RQ4y+1OcQkQjd0JnhtQN5NIZsZ9CrdvO7JFFL9QKBgBpN\n0AbnTQVJYhtToOCef/sV0sSW0oXjMTe2jfpRn5aarjL4FBPAeBdohMA15q/nDVXu\nyH9N0mpH4VOuw24vcQWlFYjKRQghBjFwtlVnaS0UHJTsqxKZ8zE59eqCx1HN6tBT\nkZ4PhyVeIQcRXNd2T/z/HoCSdyZGafs3zcRw6SvRAoGASBcjxv28oXFNZxA3D32M\n5H8p/G9FlxaOwR4y+BqLJ6Bi67qbBqvZdubDpW24pPReIFh85QZ4fWakmW9K6Ol1\n2avuw3COSZYGVe3ZqSmcOT6bMtHIQbTUGMgYno7p48Inl4fuV5O9+rErqMRRPZqm\npEsJmDsJriP9TOhFNY5wG64=\n-----END PRIVATE KEY-----\n",
  "client_email": "firebase-adminsdk-v9a7y@turtle-cloud.iam.gserviceaccount.com",
  "client_id": "106202141677735754527",
  "auth_uri": "https://accounts.google.com/o/oauth2/auth",
  "token_uri": "https://oauth2.googleapis.com/token",
  "auth_provider_x509_cert_url": "https://www.googleapis.com/oauth2/v1/certs",
  "client_x509_cert_url": "https://www.googleapis.com/robot/v1/metadata/x509/firebase-adminsdk-v9a7y%40turtle-cloud.iam.gserviceaccount.com"
}
